{
  "name": "",
  "type": "bridgesbutton",
  "title": "Bridges Button",
  "buttonIcon": "",
  "iconAlign": "",
  "buttonType": "squarebtn",
  "buttonPos": "right",
  "grid": {
    "row": true,
    "col":12
  }
}